{
  "nodes": [
    {"id": 0, "label": "ישראל", "group": 0, "free_text": "",
      "fx": 198,
      "fy": -194,
      "main_id": true,"class": "finger-print",
      "svg": "fp"
    },
    {"id": 1, "label": "שירות לקוחות", "group": 0, "free_text": "","class": "finger-print",
      "svg": "engineer"
    },
    {"id": 2, "label": "הנדסה", "group": 0, "free_text": "","class": "finger-print", "svg": "sales"},
    {"id": 3, "label": "צילום", "group": 0, "free_text": "","class": "finger-print",
      "svg": "photo"
    },
    {"id": 4, "label": "שירות אישי", "group": 0, "free_text": "","class": "finger-print","visible":true},
    {"id": 5, "label": "מכירות בחנות", "group": 0, "free_text": "","class": "finger-print","visible":true},
    {"id": 6, "label": "מלצרות והגשת משקאות", "group": 0, "class": "finger-print","visible":true},
    {"id": 7, "label": "מכירה לפי התמחות", "group": 0, "class": "finger-print","visible":true},
    {"id": 8, "label": "הכנת משקאות", "group": 0, "class": "finger-print","visible":true},

    {"id": 9, "label": "אינפורמציה ותקשורת טכנולוגית", "group": 0, "free_text": "","class": "finger-print","visible":true},
    {"id": 10, "label": "פיתוח תוכנה ואנליטיקה", "group": 0, "free_text": "","class": "finger-print","visible":true},
    {"id": 11, "label": "פיתוח ואנליטיקה שלא צויין במקום אחר", "group": 0, "free_text": "","class": "finger-print","visible":true},
    {"id": 12, "label": "בדיקת תוכנה", "group": 0, "free_text": "","class": "finger-print","visible":true},
    {"id": 13, "label": "מכירה בחנות בגדים", "group": 0, "class": "finger-print","visible":true},
    {"id": 14, "label": "מכירה בחנות נעליים ומוצרי עור", "group": 0, "class": "finger-print","visible":true},
    {"id": 15, "label": "הכנת משקאות חמים", "group": 0, "class": "finger-print","visible":true},
    {"id": 16, "label": "הכנת משקאות אלכוהוליים", "group": 0, "class": "finger-print","visible":true},

    {"id": 17, "label": "שירות לקוחות", "group": 1, "free_text": "",
      "visible": true,
      "main_id": true,"class": "A"


    },
    {"id": 26, "label": "קבלת מידע בעל פה", "group": 1, "free_text": "","colorx":"#ec644b","class": "A","hover_line": "c22"},
    {"id": 30, "label": " זיהוי צרכי הלקוח", "group": 1, "free_text": "","colorx":"#ec644b","class": "A"},
    {"id": 24, "label": "ניהול משא ומתן", "group": 1, "free_text": "","colorx":"#ec644b","class": "A"},
    {"id": 20, "label": "הסתגלות לשינויים", "group": 1, "free_text": "","colorx":"#ec644b","class": "A"},
    {"id": 34, "label": "תשומת לב לפרטים", "group": 1, "free_text": "","colorx":"#aed9e9"},
    {"id": 40, "label": "פתרון בעיות", "group": 1, "free_text": "","colorx":"#aed9e9"},
    {"id": 41, "label": "שימוש במגוון שפות", "group": 1, "free_text": "","colorx":"#aed9e9",
      "visible": true
    },

    {"id": 28, "label": "שימוש במגוון שפות", "group": 1, "free_text": "","colorx":"#9932CC"},
    {"id": 31, "label": "נכונות ללמוד", "group": 1, "free_text": "","colorx":"#9932CC",
      "visible": true,"class": "A"
    },

    {"id": 32, "label": "הנדסת תוכנה", "group": 1, "free_text": "",
      "visible": true},

    {"id": 33, "label": "נכונות ללמוד", "group": 1, "free_text": "","colorx":"#9932CC"

    },

    {"id": 39, "label": "משותף", "group": 1, "free_text": "",
      "visible": true},

    {"id": 43, "label": "עמידה בלוחות זמנים", "group": 1, "free_text": "","colorx":"#aed9e9"},

    {"id": 44, "label": "מלצרות והגשת משקאות", "group": 2, "free_text": ""},
    {"id": 45, "label": "מכירה בחנות תכשיטים", "group": 2, "free_text": "test.html"},
    {"id": 46, "label": "ניהול חנות", "group": 2, "free_text": ""},
    {"id": 51, "label": "בדיקת תוכנה", "group": 2, "free_text": "SEO.html"}


  ],

  "links": [
    {"source": 0, "target": 1, "assurance_level": 1, "root_id": 0, "group": 0,"distance": 200},
    {"source": 0, "target": 2, "assurance_level": 1, "root_id": 0, "group": 0,"distance": 200},
    {"source": 0, "target": 3, "assurance_level": 1, "root_id": 0, "group": 0,"distance": 200},


    {"source": 0, "target": 17, "assurance_level": 1, "root_id": 0, "group": 0,"distance": 100},
    {"source": 17, "target": 20, "assurance_level": 1, "root_id": 0, "group": 0,"distance": 100},
    {"source": 17, "target": 24, "assurance_level": 1, "root_id": 0, "group": 0,"distance": 100},
    {"source": 17, "target": 26, "assurance_level": 1, "root_id": 0, "group": 0,"distance": 100},
    {"source": 17, "target": 30, "assurance_level": 1, "root_id": 0, "group": 0,"distance": 150},
    {"source": 39, "target": 28, "assurance_level": 1, "root_id": 0, "group": 0,"distance": 150},
    {"source": 51, "target": 28, "assurance_level": 1, "root_id": 0, "group": 0,"distance": 150},

    {"source": 0, "target": 32, "assurance_level": 1, "root_id": 0, "group": 0,"distance": 150},
    {"source": 0, "target": 39, "assurance_level": 1, "root_id": 0, "group": 0,"distance": 150},
    {"source": 39, "target": 33, "assurance_level": 1, "root_id": 0, "group": 0,"distance": 150},
    {"source": 51, "target": 33, "assurance_level": 1, "root_id": 0, "group": 0,"distance": 150},
    {"source": 32, "target": 34, "assurance_level": 1, "root_id": 0, "group": 0,"distance": 150},
    {"source": 32, "target": 40, "assurance_level": 1, "root_id": 0, "group": 0,"distance": 150},
    {"source": 32, "target": 43, "assurance_level": 1, "root_id": 0, "group": 0,"distance": 150},

    {"source": 32, "target": 43, "assurance_level": 1, "root_id": 0, "group": 0,"distance": 150},
    {"source": 32, "target": 43, "assurance_level": 1, "root_id": 0, "group": 0,"distance": 150},
    {"source": 32, "target": 43, "assurance_level": 1, "root_id": 0, "group": 0,"distance": 150},
    {"source": 32, "target": 43, "assurance_level": 1, "root_id": 0, "group": 0,"distance": 150},
    {"source": 34, "target": 51, "assurance_level": 1, "root_id": 0, "group": 0,"distance": 150},
    {"source": 44, "target": 20, "assurance_level": 1, "root_id": 0, "group": 0,"distance": 150},
    {"source": 51, "target": 20, "assurance_level": 1, "root_id": 0, "group": 0,"distance": 150},
    {"source": 45, "target": 26, "assurance_level": 1, "root_id": 0, "group": 0,"distance": 150},
    {"source": 46, "target": 28, "assurance_level": 1, "root_id": 0, "group": 0,"distance": 150}

  ]
}

